{
    "KPlugin": {
        "Authors": [
            {
                "Email": "luigi.toscano@tiscali.it",
                "Name": "Luigi Toscano",
                "Name[ar]": "Luigi Toscano",
                "Name[az]": "Luigi Toscano",
                "Name[be]": "Luigi Toscano",
                "Name[bg]": "Luigi Toscano",
                "Name[ca@valencia]": "Luigi Toscano",
                "Name[ca]": "Luigi Toscano",
                "Name[cs]": "Luigi Toscano",
                "Name[da]": "Luigi Toscano",
                "Name[de]": "Luigi Toscano",
                "Name[el]": "Luigi Toscano",
                "Name[en_GB]": "Luigi Toscano",
                "Name[eo]": "Luigi Toscano",
                "Name[es]": "Luigi Toscano",
                "Name[et]": "Luigi Toscano",
                "Name[eu]": "Luigi Toscano",
                "Name[fi]": "Luigi Toscano",
                "Name[fr]": "Luigi Toscano",
                "Name[gl]": "Luigi Toscano",
                "Name[he]": "לואיג׳י טוסקנו",
                "Name[hu]": "Luigi Toscano",
                "Name[ia]": "Luigi Toscano",
                "Name[ie]": "Luigi Toscano",
                "Name[it]": "Luigi Toscano",
                "Name[ka]": "Luigi Toscano",
                "Name[ko]": "Luigi Toscano",
                "Name[lt]": "Luigi Toscano",
                "Name[lv]": "Luigi Toscano",
                "Name[nl]": "Luigi Toscano",
                "Name[nn]": "Luigi Toscano",
                "Name[pl]": "Luigi Toscano",
                "Name[pt]": "Luigi Toscano",
                "Name[pt_BR]": "Luigi Toscano",
                "Name[ro]": "Luigi Toscano",
                "Name[ru]": "Luigi Toscano",
                "Name[sk]": "Luigi Toscano",
                "Name[sl]": "Luigi Toscano",
                "Name[sr@ijekavian]": "Луиђи Тоскано",
                "Name[sr@ijekavianlatin]": "Luiđi Toskano",
                "Name[sr@latin]": "Luiđi Toskano",
                "Name[sr]": "Луиђи Тоскано",
                "Name[sv]": "Luigi Toscano",
                "Name[tr]": "Luigi Toscano",
                "Name[uk]": "Luigi Toscano",
                "Name[vi]": "Luigi Toscano",
                "Name[x-test]": "xxLuigi Toscanoxx",
                "Name[zh_CN]": "Luigi Toscano",
                "Name[zh_TW]": "Luigi Toscano"
            }
        ],
        "Copyright": "© 2006 Luigi Toscano",
        "Copyright[ar]": "© 2006 Luigi Toscano",
        "Copyright[az]": "© 2006 Luigi Toscano",
        "Copyright[be]": "© 2006 Luigi Toscano",
        "Copyright[bg]": "© 2006 Luigi Toscano",
        "Copyright[ca@valencia]": "© 2006 Luigi Toscano",
        "Copyright[ca]": "© 2006 Luigi Toscano",
        "Copyright[cs]": "© 2006 Luigi Toscano",
        "Copyright[da]": "© 2006 Luigi Toscano",
        "Copyright[de]": "© 2006 Luigi Toscano",
        "Copyright[el]": "© 2006 Luigi Toscano",
        "Copyright[en_GB]": "© 2006 Luigi Toscano",
        "Copyright[eo]": "© 2006 Luigi Toscano",
        "Copyright[es]": "© 2006 Luigi Toscano",
        "Copyright[et]": "© 2006: Luigi Toscano",
        "Copyright[eu]": "© 2006 Luigi Toscano",
        "Copyright[fi]": "© 2006 Luigi Toscano",
        "Copyright[fr]": "© 2006 Luigi Toscano",
        "Copyright[gl]": "© 2006 Luigi Toscano",
        "Copyright[he]": "© 2006 לואיג׳י טוסקנו",
        "Copyright[hu]": "© Luigi Toscano, 2006.",
        "Copyright[ia]": "© 2006 Pino Toscano",
        "Copyright[ie]": "© 2006 Luigi Toscano",
        "Copyright[it]": "© 2006 Luigi Toscano",
        "Copyright[ka]": "© 2006 Luigi Toscano",
        "Copyright[ko]": "© 2006 Luigi Toscano",
        "Copyright[lt]": "© 2006 Luigi Toscano",
        "Copyright[lv]": "© 2006 Luigi Toscano",
        "Copyright[nl]": "© 2006 Luigi Toscano",
        "Copyright[nn]": "© 2006 Luigi Toscano",
        "Copyright[pa]": "© 2006 Luigi Toscano",
        "Copyright[pl]": "© 2006 Luigi Toscano",
        "Copyright[pt]": "© 2006 Luigi Toscano",
        "Copyright[pt_BR]": "© 2006 Luigi Toscano",
        "Copyright[ro]": "© 2006 Luigi Toscano",
        "Copyright[ru]": "© Luigi Toscano, 2006",
        "Copyright[sk]": "© 2006 Luigi Toscano",
        "Copyright[sl]": "© 2006 Luigi Toscano",
        "Copyright[sr@ijekavian]": "© 2006, Луиђи Тоскано",
        "Copyright[sr@ijekavianlatin]": "© 2006, Luiđi Toskano",
        "Copyright[sr@latin]": "© 2006, Luiđi Toskano",
        "Copyright[sr]": "© 2006, Луиђи Тоскано",
        "Copyright[sv]": "© 2006 Luigi Toscano",
        "Copyright[tr]": "© 2006 Luigi Toscano",
        "Copyright[uk]": "© Luigi Toscano, 2006",
        "Copyright[vi]": "© 2006 Luigi Toscano",
        "Copyright[x-test]": "xx© 2006 Luigi Toscanoxx",
        "Copyright[zh_CN]": "© 2006 Luigi Toscano",
        "Copyright[zh_TW]": "© 2006 Luigi Toscano",
        "Description": "A DVI file renderer",
        "Description[ar]": "عارض ملف DVI",
        "Description[az]": "DVİ faylı tərtibatçısı",
        "Description[be]": "Сродак візуалізацыі файлаў DVI",
        "Description[bg]": "Визуализатор на DVI файлове",
        "Description[ca@valencia]": "Un renderitzador de fitxers DVI",
        "Description[ca]": "Un renderitzador de fitxers DVI",
        "Description[cs]": "Vykreslovač DVI souborů",
        "Description[da]": "En gengiver til DVI-filer",
        "Description[de]": "Ein Renderer für DVI-Dateien",
        "Description[el]": "Πρόγραμμα αποτύπωσης για DVI αρχεία",
        "Description[en_GB]": "A DVI file renderer",
        "Description[eo]": "DVI-dosierprezentilo",
        "Description[es]": "Un visor de archivos DVI",
        "Description[et]": "DVI-faili renderdaja",
        "Description[eu]": "DVI fitxategi errendatzaile bat",
        "Description[fi]": "DVI-tiedostohahmonnin",
        "Description[fr]": "Système de rendu pour fichiers « DVI »",
        "Description[gl]": "Un visor de ficheiros DVI.",
        "Description[he]": "מעבד קובצי DVI",
        "Description[hu]": "DVI-fájl leképező",
        "Description[ia]": "Un renditor de file de DVI",
        "Description[it]": "Un visualizzatore di file DVI",
        "Description[ka]": "DVI ფაილის რენდერერი",
        "Description[ko]": "DVI 파일 렌더러",
        "Description[lt]": "DVI failų atvaizdavimas",
        "Description[lv]": "DVI datņu atveidotājs",
        "Description[nl]": "Een DVI-bestandsweergever",
        "Description[nn]": "Ein gjengjevar for DVI-filer",
        "Description[pl]": "Wyświetlanie plików DVI",
        "Description[pt]": "Um visualizador de ficheiros DVI",
        "Description[pt_BR]": "Um renderizador de arquivo DVI",
        "Description[ro]": "Randor pentru fișiere DVI",
        "Description[ru]": "Модуль поддержки формата DVI",
        "Description[sk]": "Vykresľovanie DVI súborov",
        "Description[sl]": "Izrisovalnik datotek DVI",
        "Description[sr@ijekavian]": "Рендерер ДВИ фајлова",
        "Description[sr@ijekavianlatin]": "Renderer DVI fajlova",
        "Description[sr@latin]": "Renderer DVI fajlova",
        "Description[sr]": "Рендерер ДВИ фајлова",
        "Description[sv]": "Ett återgivningsprogram för DVI-filer",
        "Description[tr]": "Bir DVI dosyası sunucu",
        "Description[uk]": "Інструмент для показу файлів DVI",
        "Description[vi]": "Một trình kết xuất tệp DVI",
        "Description[x-test]": "xxA DVI file rendererxx",
        "Description[zh_CN]": "DVI 文件的渲染程序",
        "Description[zh_TW]": "DVI 檔成像器",
        "License": "GPL",
        "MimeTypes": [
            "application/x-dvi"
        ],
        "Name": "DVI Backend",
        "Name[ar]": "خلفية DVI",
        "Name[az]": "DVİ modulu",
        "Name[be]": "Рухавік DVI",
        "Name[bg]": "Бекенд на DVI",
        "Name[ca@valencia]": "Dorsal DVI",
        "Name[ca]": "Dorsal DVI",
        "Name[cs]": "Implementace DVI",
        "Name[da]": "DVI-backend",
        "Name[de]": "Anzeigemodul für DVI",
        "Name[el]": "Σύστημα υποστήριξης DVI",
        "Name[en_GB]": "DVI Backend",
        "Name[eo]": "DVI-Backend",
        "Name[es]": "Motor para DVI",
        "Name[et]": "DVI taustaprogramm",
        "Name[eu]": "DVIren bizkarraldekoa",
        "Name[fi]": "DVI-taustaosa",
        "Name[fr]": "Moteur DVI",
        "Name[gl]": "Motor de DVI",
        "Name[he]": "מנגנון DVI",
        "Name[hu]": "DVI modul",
        "Name[ia]": "Retro-administration de DVI",
        "Name[ie]": "Infrastructura DVI",
        "Name[it]": "Backend DVI",
        "Name[ka]": "DVI უკანაბოლო",
        "Name[ko]": "DVI 백엔드",
        "Name[lt]": "DVI programinė sąsaja",
        "Name[lv]": "DVI aizmugursistēma",
        "Name[nl]": "DVI-backend",
        "Name[nn]": "DVI-motor",
        "Name[pa]": "DVI ਬੈਕਐਂਡ",
        "Name[pl]": "Obsługa DVI",
        "Name[pt]": "Infra-Estrutura de DVI",
        "Name[pt_BR]": "Infraestrutura DVI",
        "Name[ro]": "Platformă DVI",
        "Name[ru]": "Модуль поддержки формата DVI",
        "Name[sk]": "DVI Backend",
        "Name[sl]": "Zaledje za DVI",
        "Name[sr@ijekavian]": "Позадина за ДВИ",
        "Name[sr@ijekavianlatin]": "Pozadina za DVI",
        "Name[sr@latin]": "Pozadina za DVI",
        "Name[sr]": "Позадина за ДВИ",
        "Name[sv]": "DVI-gränssnitt",
        "Name[ta]": "DVI பின்நிலை",
        "Name[tr]": "DVI Arka Ucu",
        "Name[uk]": "Модуль DVI",
        "Name[vi]": "Hậu phương DVI",
        "Name[x-test]": "xxDVI Backendxx",
        "Name[zh_CN]": "DVI 后端程序",
        "Name[zh_TW]": "DVI 後端介面",
        "Version": "0.3.7"
    },
    "X-KDE-Priority": 2,
    "X-KDE-okularAPIVersion": 1,
    "X-KDE-okularHasInternalSettings": false
}
